{
	"levelId": 1,
	"name": "TestFun",
	"displayName": "Test Engine Base Mechanics",
	"currentArea": 1,
	"levelSpriteSheet": "/Sprite_Sheet_16.png",	
	"levelSpriteSheetSize": 16,
	"levelSpriteSheetBinary": 4,
	"levelEntitiesSheet": "/level1Entities.png",
	"loadAreas": [
		{
			"areaId": 0,
			"areaName": "Lake ratard",
			"areaTilePath": "/levels/med_watertest_level.png",
			"heightMapPath": "/levels/med_watertest_heightmap.json",
			"loadTiles": [
				{
					"triggerMovingDir": 1,
					"originVector": {"x": 24, "y": 63},
					"destinationVector": {"x": 14, "y": 1},
					"originArea": 0,
					"destinationArea": 1
				}, 
				{
					"triggerMovingDir": 1,
					"originVector": {"x": 25, "y": 63},
					"destinationVector": {"x": 15, "y": 1},
					"originArea": 0,
					"destinationArea": 1
				}, 
				{
					"triggerMovingDir": 1,
					"originVector": {"x": 26, "y": 63},
					"destinationVector": {"x": 16, "y": 1},
					"originArea": 0,
					"destinationArea": 1
				}
			],
			"areaEntities": [
				{
					"name": "Zombies",
					"speed": 1,
					"animationSpeed": 750,
					"movingDir": 1,
					"entityScale": 2,
					"maxHealth": 100,
					"currHealth": 100,
					"startingLocations": [
						{"x": 450, "y": 600}
					],
					"collisionCoords": [
						{"x": -14, "y": 3},
						{"x": 14, "y": 3},
						{"x": -14, "y": 31},
						{"x": 14, "y": 31}
					],
					"spriteSize": 32,
					"spriteShift": 5,
					"movingUpSprites": [
						{"x": 0, "y": 4},
						{"x": 1, "y": 4}
					],
					"movingDownSprites": [
						{"x": 2, "y": 4},
						{"x": 3, "y": 4}
					],
					"movingLeftSprites": [
						{"x": 4, "y": 4},
						{"x": 5, "y": 4}
					],
					"movingRightSprites": [
						{"x": 6, "y": 4},
						{"x": 7, "y": 4}
					],
					"passiveSprites": [
						{"x": 8, "y": 4},
						{"x": 9, "y": 4},
						{"x": 5, "y": 4},
						{"x": 6, "y": 4}
					],
					"entityType": "Hostile",
					"aiProfiles": ["Melee"]
				},
				{
					"name": "Skeletons",
					"speed": 2,
					"animationSpeed": 250,
					"movingDir": 1,
					"entityScale": 1,
					"maxHealth": 100,
					"currHealth": 100,
					"startingLocations": [
						{"x": 150, "y": 150},
						{"x": 450, "y": 450}
					],
					"collisionCoords": [
						{"x": -7, "y": 3},
						{"x": 7, "y": 3},
						{"x": -7, "y": 15},
						{"x": 7, "y": 15}
					],
					"spriteSize": 32,
					"spriteShift": 5,
					"movingUpSprites": [
						{"x": 4, "y": 3},
						{"x": 5, "y": 3},
						{"x": 4, "y": 3},
						{"x": 3, "y": 3}
					],
					"movingDownSprites": [
						{"x": 4, "y": 0},
						{"x": 5, "y": 0},
						{"x": 4, "y": 0},
						{"x": 3, "y": 0}
					],
					"movingLeftSprites": [
						{"x": 4, "y": 1},
						{"x": 5, "y": 1},
						{"x": 4, "y": 1},
						{"x": 3, "y": 1}
					],
					"movingRightSprites": [
						{"x": 4, "y": 2},
						{"x": 5, "y": 2},
						{"x": 4, "y": 2},
						{"x": 3, "y": 2}
					],
					"passiveSprites": [
						{"x": 4, "y": 3},
						{"x": 5, "y": 0},
						{"x": 4, "y": 1},
						{"x": 3, "y": 2}
					],
					"entityType": "Hostile",
					"aiProfiles": ["Ranged"]
				}
			] 
		},
		{
			"areaId": 1,
			"areaName": "Always look behind the waterfall",
			"areaTilePath": "/levels/small_cave_test.png",
			"heightMapPath": null,
			"loadTiles": [
					{
						"triggerMovingDir": 0,
						"originVector": {"x": 14, "y": 0 },
						"destinationVector": {"x": 24, "y": 62},
						"originArea": 1,
						"destinationArea": 0
					}, 
					{
						"triggerMovingDir": 0,
						"originVector": {"x": 15, "y": 0},
						"destinationVector": {"x": 25, "y": 62},
						"originArea": 1,
						"destinationArea": 0
					}, 
					{
						"triggerMovingDir": 0,
						"originVector": {"x": 16, "y": 0},
						"destinationVector": {"x": 26, "y": 62},
						"originArea": 1,
						"destinationArea": 0
					}
			],
			"areaEntities": [
{
					"name": "NPC",
					"speed": 1,
					"animationSpeed": 750,
					"movingDir": 1,
					"entityScale": 2,
					"startingLocations": [
						{"x": 300, "y": 80}
					],
					"collisionCoords": [
						{"x": -14, "y": 3},
						{"x": 14, "y": 3},
						{"x": -14, "y": 31},
						{"x": 14, "y": 31}
					],
					"spriteSize": 32,
					"spriteShift": 5,
					"movingUpSprites": [
						{"x": 0, "y": 4},
						{"x": 1, "y": 4}
					],
					"movingDownSprites": [
						{"x": 2, "y": 4},
						{"x": 3, "y": 4}
					],
					"movingLeftSprites": [
						{"x": 4, "y": 4},
						{"x": 5, "y": 4}
					],
					"movingRightSprites": [
						{"x": 6, "y": 4},
						{"x": 7, "y": 4}
					],
					"passiveSprites": [
						{"x": 8, "y": 4},
						{"x": 9, "y": 4},
						{"x": 5, "y": 4},
						{"x": 6, "y": 4}
					],
					"entityType": "NPC",
					"aiProfiles": ["Stationary"]
				},			
				{
					"name": "PorkSwordChest",
					"startingLocations": [
						{"x": 200, "y": 160}
					],
					"collisionCoords": [
						{"x": 0, "y": 0},
						{"x": 15, "y": 0},
						{"x": 0, "y": 15},
						{"x": 15, "y": 15}
					],
					"entityScale": 1,
					"spriteSize": 16,
					"spriteShift": 4,
					"lootedSprite": {"x": 2, "y": 10},
					"unLootedSprite": {"x": 1, "y": 10},
					"entityType": "EntityLootable",
					"interactable": true,
					"loadItems": [
						{
							"name": "Pork Sword",
                            "type": "Weapon",
							"pluralName": false,							
							"entityScale": 1,
							"spriteSize": 16,
							"spriteShift": 4,
							"itemProperties": ["Sellable"],
							"value": 10,
							"icon": {"x": 1, "y": 11},
							"iconSupplied": true,
							"infoText": "An average size pink sword, for her pleasure.",
                            "projectileSetID": 1,
                            "damage": 10,
                            "attackSpeed": 750,
                            "melee": false,
                            "weaponSprite": {"x": 1, "y": 11},
                            "projectileCollision":[
                                {"x": -6, "y": 3},
                                {"x": 6, "y": 3},
                                {"x": -6, "y": 15},
                                {"x": 6, "y": 15}
                            ],
                            "projectileLife": 100,
                            "projectileSpeed": 0,
                            "projectileAnimationSpeed": 0
						},
						{
							"name": "100 Gold",
                            "type": null,
							"pluralName": true,
							"entityScale": 1,
							"spriteSize": 16,
							"spriteShift": 4,
							"itemProperties": ["Currency"],
							"iconSupplied": false,
							"value": 100
						}
					]
				},
				{
					"name": "DickChest",
					"startingLocations": [
						{"x": 200, "y": 360}
					],
					"collisionCoords": [
						{"x": 0, "y": 0},
						{"x": 15, "y": 0},
						{"x": 0, "y": 15},
						{"x": 15, "y": 15}
					],
					"entityScale": 1,
					"spriteSize": 16,
					"spriteShift": 4,
					"lootedSprite": {"x": 2, "y": 10},
					"unLootedSprite": {"x": 1, "y": 10},
					"entityType": "EntityLootable",
					"interactable": true,
					"loadItems": [
						{
							"name": "Big Bag of Dicks",
                            "type": null,
							"pluralName": false,
							"entityScale": 1,
							"spriteSize": 16,
							"spriteShift": 4,
							"itemProperties": ["Sellable"],
							"value": 500,
							"icon": {"x": 0, "y": 11},
							"iconSupplied": true,
							"infoText": "A large bag of dicks of assorted sizes, colors and previous use."
						}
					]
				},
				{
					"name": "DialogueTestGuy",
					"speed": 0,
					"animationSpeed": 1,
					"movingDir": 1,
					"entityScale": 1,
					"startingLocations": [
						{"x": 300, "y": 240}
					],
					"collisionCoords": [
						{"x": -7, "y": 3},
						{"x": 7, "y": 3},
						{"x": -7, "y": 15},
						{"x": 7, "y": 15}
					],
					"spriteSize": 32,
					"spriteShift": 5,
					"passiveSprites": [
						{"x": 6, "y": 3},
						{"x": 6, "y": 0},
						{"x": 6, "y": 1},
						{"x": 6, "y": 2}
					],
					"entityType": "NPC",
					"interactable": true,
					"aiProfiles": ["Stationary"],
					"conversations":[
						{
							"read": false,
							"repeatable": false,
							"dialogues":[
								{
									"speakerName": "Matt",
						 			"displaySpeed": 16,
						 			"message": "What's up G?",
						 			"autoRead": false
								},
								{
									"speakerName": "DialogueTestGuy",
									"displaySpeed": 16,
									"message": "Not much man, just sitting in a cave with my chests of treasures.  You know how I do.",
						 			"autoRead": false
								},
								{	
									"speakerName": "Matt",
						 			"displaySpeed": 16,
						 			"message": "OK dawg, you keep it real a'ight?",
						 			"autoRead": false
						 		}
							]
						},
						{
							"read": false,
							"repeatable": true,
							"dialogues":[
								{
									"speakerName": "DialogueTestGuy",
									"displaySpeed": 50,
									"message": ". . .",
						 			"autoRead": true
								}
							]
						}
					]
				}															
			] 
		}
	],
	"levelPath": "/levels/med_watertest_level.png",
	"loadingTiles": [
		{
			"id": 0,
			"name": "void",
			"tileLocations": [[{"x": 0, "y": 0}]],
			"levelColor": "0xFF000000",
			"loadProperties": ["Void"],
			"collision": "Full"					
		}, 
		{
			"id": 1,
			"name": "stone",
			"tileLocations": [[{"x": 7, "y": 1}]],
			"levelColor": "0xFF555555",
			"loadProperties": ["Solid"],
			"collision": "Full"
		}, 
		{
			"id": 6,
			"name": "stoneNorthHalfGrass",
			"tileLocations": [
				[{"x": 14, "y": 1}],				
				[{"x": 7, "y": 2}]
			],
			"levelColor": "0xFF555563",
			"loadProperties": ["Solid"],
			"collision": "North",
			"subTiles": [1, 3]
		}, 
		{
			"id": 7,
			"name": "stoneEastHalfGrass",
			"tileLocations": [
				[{"x": 14, "y": 1}],
				[{"x": 8, "y": 1}]
			],
			"levelColor": "0xFF555561",
			"loadProperties": ["Solid"],
			"collision": "West",
			"subTiles": [1, 3]
		}, 
		{
			"id": 8,
			"name": "stoneSouthHalfGrass",
			"tileLocations": [
				[{"x": 14, "y": 1}],
				[{"x": 7, "y": 0}]
			],
			"levelColor": "0xFF55555F",
			"loadProperties": ["Solid"],
			"collision": "South",
			"subTiles": [1, 3]
		}, 
		{
			"id": 9,
			"name": "stoneWestHalfGrass",
			"tileLocations": [
				[{"x": 14, "y": 1}],
				[{"x": 6, "y": 1}]
			],
			"levelColor": "0xFF555565",
			"loadProperties": ["Solid"],
			"collision": "East",
			"subTiles": [1, 3]
		}, 
		{
			"id": 10,
			"name": "stoneNorthEastQuarterGrass",
			"tileLocations": [
				[{"x": 14, "y": 1}],
				[{"x": 6, "y": 2}]
			],
			"levelColor": "0xFF555564",
			"loadProperties": ["Solid"],
			"collision": "NorthEast",
			"subTiles": [1, 3]
		}, 
		{
			"id": 11,
			"name": "stoneSouthWestQuarterGrass",
			"tileLocations": [
				[{"x": 14, "y": 1}],
				[{"x": 8, "y": 0}]
			],
			"levelColor": "0xFF555560",
			"loadProperties": ["Solid"],
			"collision": "SouthWest",
			"subTiles": [1, 3]
		}, 
		{
			"id": 12,
			"name": "stoneNorthWestQuarterGrass",
			"tileLocations": [
				[{"x": 14, "y": 1}],
				[{"x": 8, "y": 2}]
			],
			"levelColor": "0xFF555562",
			"loadProperties": ["Solid"],
			"collision": "NorthWest",
			"subTiles": [1, 3]
		}, 
		{
			"id": 25,
			"name": "stoneSouthEastQuarterGrass",
			"tileLocations": [
				[{"x": 14, "y": 1}],
				[{"x": 6, "y": 0}]
			],
			"levelColor": "0xFF55555E",
			"loadProperties": ["Solid"],
			"collision": "SouthEast",
			"subTiles": [1, 3]
		}, 
				{
			"id": 13,
			"name": "stoneNorthEastDiagonalGrass",
			"tileLocations": [
				[{"x": 14, "y": 1}],
				[{"x": 11, "y": 1}]
			],
			"levelColor": "0xFF55555D",
			"loadProperties": ["Solid"],
			"collision": "NorthEastDiagonal",
			"subTiles": [1, 3]
		}, 
		{
			"id": 14,
			"name": "stoneSouthEastDiagonalGrass",
			"tileLocations": [
				[{"x": 14, "y": 1}],
				[{"x": 11, "y": 0}]
			],
			"levelColor": "0xFF55555A",
			"loadProperties": ["Solid"],
			"collision": "SouthEastDiagonal",
			"subTiles": [1, 3]
		}, 
		{
			"id": 15,
			"name": "stoneSouthWestDiagonalGrass",
			"tileLocations": [
				[{"x": 14, "y": 1}],
				[{"x": 12, "y": 0}]
			],
			"levelColor": "0xFF55555B",
			"loadProperties": ["Solid"],
			"collision": "SouthWestDiagonal",
			"subTiles": [1, 3]
		}, 
		{
			"id": 16,
			"name": "stoneNorthWestDiagonalGrass",
			"tileLocations": [
				[{"x": 14, "y": 1}],
				[{"x": 12, "y": 1}]
			],
			"levelColor": "0xFF55555C",
			"loadProperties": ["Solid"],
			"collision": "NorthWestDiagonal",
			"subTiles": [1, 3]
		}, 
		{
			"id": 17,
			"name": "stoneForwardDiagonalTopGrass",
			"tileLocations": [
				[{"x": 14, "y": 1}],
				[{"x": 9, "y": 1}]
			],
			"levelColor": "0xFF555559",
			"loadProperties": ["Solid"],
			"collision": "ForwardDiagonalTop",
			"subTiles": [1, 3]
		}, 
		{
			"id": 18,
			"name": "stoneForwardDiagonalBottomGrass",
			"tileLocations": [
				[{"x": 14, "y": 1}],
				[{"x": 10, "y": 0}]
			],
			"levelColor": "0xFF555557",
			"loadProperties": ["Solid"],
			"collision": "ForwardDiagonalBottom",
			"subTiles": [1, 3]
		}, 
		{
			"id": 19,
			"name": "stoneBackwardDiagonalTopGrass",
			"tileLocations": [
				[{"x": 14, "y": 1}],
				[{"x": 10, "y": 1}]
			],
			"levelColor": "0xFF555558",
			"loadProperties": ["Solid"],
			"collision": "BackwardDiagonalTop",
			"subTiles": [1, 3]
		}, 
		{
			"id": 20,
			"name": "stoneBackwardDiagonalBottom",
			"tileLocations": [
				[{"x": 14, "y": 1}],
				[{"x": 9, "y": 0}]
			],
			"levelColor": "0xFF555556",
			"loadProperties": ["Solid"],
			"collision": "BackwardDiagonalBottom",
			"subTiles": [1, 3]
		}, 
		{
			"id": 2,
			"name": "dirt",
			"tileLocations": [[{"x": 11, "y": 3}]],
			"levelColor": "0xFF643c00",
			"loadProperties": ["Basic"],
			"collision": "Full"					
		}, 
		{
			"id": 3,
			"name": "grass",
			"tileLocations": [[{"x": 14, "y": 1}]],
			"levelColor": "0xFF00FF00",
			"loadProperties": ["Basic"],
			"collision": "Full"			
		}, 
		{
			"id": 4,
			"name": "water",
			"tileLocations": [[
				{"x": 0, "y": 5}, 
				{"x": 1, "y": 5},
				{"x": 2, "y": 5}, 
				{"x": 1, "y": 5}
			]],
			"tileAnimationDelay": 500,
			"animationSwitch": true,
			"levelColor": "0xFF0000FF",
			"loadProperties": ["Liquid"],
			"collision": "Full",			
			"loadTileParticles": {
				"enterImages": [
						{"x": 3, "y": 27}, 
						{"x": 4, "y": 27},
						{"x": 3, "y": 27}
				],
				"enterOffset": {"x": 0, "y": 8},
				"enterRate": 175,
				"enterPreEntity": false,
				"movingUpImages": [						
						{"x": 0, "y": 25}, 
						{"x": 0, "y": 26},
						{"x": 1, "y": 26}
				],
				"movingUpOffset": {"x": 3, "y": 8},
				"movingDownImages": [						
						{"x": 0, "y": 25}, 
						{"x": 0, "y": 26},
						{"x": 1, "y": 26}						
				],
				"movingDownOffset": {"x": 3, "y": 10},
				"movingLeftImages": [						
						{"x": 0, "y": 25}, 
						{"x": 2, "y": 26},
						{"x": 3, "y": 26}							
				],
				"movingLeftOffset": {"x": 1, "y": 13},
				"movingRightImages": [						
						{"x": 0, "y": 25}, 
						{"x": 2, "y": 26},
						{"x": 3, "y": 26}							
				],
				"movingRightOffset": {"x": 15, "y": 13},
				"movingRate": 300,
				"movingPreEntity": true,
				"exitImages": [						
						{"x": 1, "y": 25}, 
						{"x": 2, "y": 25},
						{"x": 3, "y": 25},
						{"x": 4, "y": 25}							
				],
				"exitOffset": {"x": 0, "y": 10},
				"exitRate": 300,
				"exitPreEntity": false,			
				"passiveImages": [
						{"x": 0, "y": 27}, 
						{"x": 1, "y": 27},
						{"x": 2, "y": 27}
				],
				"passiveOffset": {"x": 0, "y": 8},
				"passiveRate": 250,
				"passivePreEntity": true				
			}
		},
		{
			"id": 21,
			"name": "waterNorthEastGrass",
			"tileLocations": [
				[
					{"x": 0, "y": 5}, 
					{"x": 1, "y": 5},
					{"x": 2, "y": 5}, 
					{"x": 1, "y": 5}
				],
				[
					{"x": 17, "y": 0}, 
					{"x": 17, "y": 0},
					{"x": 17, "y": 0}, 
					{"x": 17, "y": 0}
				]
			],
			"tileAnimationDelay": 500,
			"animationSwitch": true,
			"levelColor": "0xFF0001FF",
			"loadProperties": ["Liquid"],
			"collision": "ForwardDiagonalBottom",
			"subTiles":[4, 3]
		},
		{
			"id": 22,
			"name": "waterNorthWestGrass",
			"tileLocations": [
				[
					{"x": 0, "y": 5}, 
					{"x": 1, "y": 5},
					{"x": 2, "y": 5}, 
					{"x": 1, "y": 5}
				],
				[
					{"x": 16, "y": 0}, 
					{"x": 16, "y": 0},
					{"x": 16, "y": 0}, 
					{"x": 16, "y": 0}
				]
			],
			"tileAnimationDelay": 500,
			"animationSwitch": true,
			"levelColor": "0xFF0002FF",
			"loadProperties": ["Liquid"],
			"collision": "BackwardDiagonalBottom",
			"subTiles":[4, 3]
		},
		{
			"id": 23,
			"name": "waterSouthEastGrass",
			"tileLocations": [
				[
					{"x": 0, "y": 5}, 
					{"x": 1, "y": 5},
					{"x": 2, "y": 5}, 
					{"x": 1, "y": 5}
				],
				[
					{"x": 17, "y": 1}, 
					{"x": 17, "y": 1},
					{"x": 17, "y": 1}, 
					{"x": 17, "y": 1}
				]
			],
			"tileAnimationDelay": 500,
			"animationSwitch": true,
			"levelColor": "0xFF0003FF",
			"loadProperties": ["Liquid"],
			"collision": "BackwardDiagonalTop",			
			"subTiles": [4, 3]
		},
		{
			"id": 24,
			"name": "waterSouthWestGrass",
			"tileLocations": [
				[
					{"x": 0, "y": 5}, 
					{"x": 1, "y": 5},
					{"x": 2, "y": 5}, 
					{"x": 1, "y": 5}
				],
				[
					{"x": 16, "y": 1}, 
					{"x": 16, "y": 1},
					{"x": 16, "y": 1}, 
					{"x": 16, "y": 1}
				]
			],
			"tileAnimationDelay": 500,
			"animationSwitch": true,
			"levelColor": "0xFF0004FF",
			"loadProperties": ["Liquid"],
			"collision": "ForwardDiagonalTop",				
			"subTiles": [4, 3]
		},								 
		{
			"id": 5,
			"name": "lava",
			"tileLocations": [[
				{"x": 3, "y": 5}, 
				{"x": 4, "y": 5}, 
				{"x": 5, "y": 5},
				{"x": 6, "y": 5}
			]],
			"tileAnimationDelay": 750,
			"animationSwitch": true,
			"animationRandomize": true,
			"levelColor": "0xFFFF0022",
			"loadProperties": ["Liquid", "Hot"],
			"collision": "Full",				
			"loadTileParticles": {
				"enterImages": [
						{"x": 7, "y": 27}, 
						{"x": 8, "y": 27},
						{"x": 7, "y": 27} 
				],
				"enterOffset": {"x": 0, "y": 8},
				"enterRate": 300,
				"enterPreEntity": false,		
				"movingUpImages": null,
				"movingUpOffset": null,
				"movingDownImages": null,
				"movingDownOffset": null,
				"movingLeftImages": null,
				"movingLeftOffset": null,
				"movingRightImages": null,
				"movingRightOffset": null,
				"movingRate": 0,
				"movingPreEntity": false,										
				"exitImages": null,
				"exitRate": 0,
				"exitPreEntity": false,				
				"passiveImages": [
						{"x": 5, "y": 27}, 
						{"x": 6, "y": 27}
				],
				"passiveOffset": {"x": 0, "y": 8},
				"passiveRate": 400,
				"passivePreEntity": true				
			}
		}
	],
	"levelEntities":[ 
		{
			"name": "Matt",
			"speed": 2,
			"animationSpeed": 250,
			"movingDir": 1,
			"entityScale": 1,
			"interactable": true,
			"maxHealth": 100,
			"currHealth": 100,
			"startingLocations": [{"x": 300, "y": 48}],
			"collisionCoords": [
				{"x": -6, "y": 3},
				{"x": 6, "y": 3},
				{"x": -6, "y": 15},
				{"x": 6, "y": 15}
			],
			"spriteSize": 32,
			"spriteShift": 5,
			"movingUpSprites": [
				{"x": 1, "y": 3},
				{"x": 2, "y": 3},
				{"x": 1, "y": 3},
				{"x": 0, "y": 3}
			],
			"movingDownSprites": [
				{"x": 1, "y": 0},
				{"x": 2, "y": 0},
				{"x": 1, "y": 0},
				{"x": 0, "y": 0}
			],
			"movingLeftSprites": [
				{"x": 1, "y": 1},
				{"x": 2, "y": 1},
				{"x": 1, "y": 1},
				{"x": 0, "y": 1}
			],
			"movingRightSprites": [
				{"x": 1, "y": 2},
				{"x": 2, "y": 2},
				{"x": 1, "y": 2},
				{"x": 0, "y": 2}
			],
			"passiveSprites": [
				{"x": 1, "y": 3},
				{"x": 1, "y": 0},
				{"x": 1, "y": 1},
				{"x": 1, "y": 2}
			],
			"entityType": "Player"
		}
	],
	"entitiesSpriteSheet": "/sprite_sheet - color.png"
}